{
	"info": {
		"_postman_id": "cda9d310-0350-4009-a3ce-b2e512bbba34",
		"name": "achievements.api",
		"schema": "https://schema.getpostman.com/json/collection/v2.1.0/collection.json"
	},
	"item": [
		{
			"name": "GetAllGameAchievements",
			"request": {
				"method": "GET",
				"header": [],
				"body": {
					"mode": "raw",
					"raw": ""
				},
				"url": {
					"raw": "http://localhost:8080/achievements.api/api/achievements/all/1d94a998-39c0-47d2-be11-13f5dc0e4aff",
					"protocol": "http",
					"host": [
						"localhost"
					],
					"port": "8080",
					"path": [
						"achievements.api",
						"api",
						"achievements",
						"all",
						"1d94a998-39c0-47d2-be11-13f5dc0e4aff"
					]
				},
				"description": "Get all achievements for game id"
			},
			"response": []
		},
		{
			"name": "GetAchievement",
			"request": {
				"method": "GET",
				"header": [],
				"body": {
					"mode": "raw",
					"raw": ""
				},
				"url": {
					"raw": "http://localhost:8080/achievements.api/api/achievements/d0fa3e10-d268-4e06-8b10-1868de4de7d6",
					"protocol": "http",
					"host": [
						"localhost"
					],
					"port": "8080",
					"path": [
						"achievements.api",
						"api",
						"achievements",
						"d0fa3e10-d268-4e06-8b10-1868de4de7d6"
					]
				},
				"description": "Get achievement by id"
			},
			"response": []
		},
		{
			"name": "CreateAchievement",
			"request": {
				"method": "POST",
				"header": [
					{
						"key": "Content-Type",
						"value": "application/json"
					}
				],
				"body": {
					"mode": "raw",
					"raw": "{\n    \"displayName\": \"Wizards of Java\",\n    \"description\": \"Master Java Language\",\n    \"icon\": \"\",\n    \"displayOrder\": 1,\n    \"created\": 20180505023741,\n    \"updated\": 20180506043753\n}"
				},
				"url": {
					"raw": "http://localhost:8080/achievements.api/api/achievements/",
					"protocol": "http",
					"host": [
						"localhost"
					],
					"port": "8080",
					"path": [
						"achievements.api",
						"api",
						"achievements",
						""
					]
				},
				"description": "create achievement"
			},
			"response": []
		},
		{
			"name": "DeleteAchievement",
			"request": {
				"method": "DELETE",
				"header": [],
				"body": {
					"mode": "raw",
					"raw": ""
				},
				"url": {
					"raw": "http://localhost:8080/achievements.api/api/achievements/4f504f8e-16f4-4e85-9c3b-e32ee0fa1ebf",
					"protocol": "http",
					"host": [
						"localhost"
					],
					"port": "8080",
					"path": [
						"achievements.api",
						"api",
						"achievements",
						"4f504f8e-16f4-4e85-9c3b-e32ee0fa1ebf"
					]
				},
				"description": "create achievement"
			},
			"response": []
		},
		{
			"name": "UpdateAchievement",
			"request": {
				"method": "PUT",
				"header": [
					{
						"key": "Content-Type",
						"value": "application/json"
					}
				],
				"body": {
					"mode": "raw",
					"raw": "{\n    \"displayName\": \"Get the Party Started\",\n    \"description\": \"Kingdom Rush Origins - Win stage 1 with 5 stars\",\n    \"icon\": \"\",\n    \"displayOrder\": 6,\n    \"created\": 20180505023727,\n    \"updated\": 20180506043746\n}"
				},
				"url": {
					"raw": "http://localhost:8080/achievements.api/api/achievements/31f99f63-5f5f-45bc-8a24-782479ec57ea",
					"protocol": "http",
					"host": [
						"localhost"
					],
					"port": "8080",
					"path": [
						"achievements.api",
						"api",
						"achievements",
						"31f99f63-5f5f-45bc-8a24-782479ec57ea"
					]
				},
				"description": "create achievement"
			},
			"response": []
		}
	],
	"event": [
		{
			"listen": "prerequest",
			"script": {
				"id": "0c8debab-d24a-467c-a169-01f332bbcf8d",
				"type": "text/javascript",
				"exec": [
					""
				]
			}
		},
		{
			"listen": "test",
			"script": {
				"id": "bb104ade-b9f9-4539-a617-0d35376e2e97",
				"type": "text/javascript",
				"exec": [
					""
				]
			}
		}
	]
}